Итоговый проект
…
tidy_dtm <- tidy_new %>%
  cast_dtm(book_id, words, n) #преобразовываем таблицу в матрицу

tidy_lda <- LDA(tidy_dtm, k = 4, control = list(seed = 12345)) #матрица, количество тем, контроль за вероятностью
tidy_lda

## A LDA_VEM topic model with 4 topics.

tidy_topics <- tidy(tidy_lda, matrix = "beta") # извлекаем матрицу
tidy_topics

## # A tibble: 31,636 x 3
##    topic term       beta
##    <int> <chr>     <dbl>
##  1     1 de    1.27e- 16
##  2     2 de    1.47e-  2
##  3     3 de    3.84e- 25
##  4     4 de    2.16e- 26
##  5     1 la    7.59e- 13
##  6     2 la    9.33e-  3
##  7     3 la    2.60e- 28
##  8     4 la    9.60e- 23
##  9     1 wine  3.36e-145
## 10     2 wine  1.24e-141
## # … with 31,626 more rows
…
reviews.bigrams = goodread_reviews %>% 
  unnest_tokens(bigram, lem, token = "ngrams", n = 2)

reviews.bifiltered = reviews.bigrams %>% 
  separate(bigram, c("word1", "word2"), sep = " ") %>% 
  dplyr::filter(!word1 %in% stopwords_en) %>% 
  dplyr::filter(!word2 %in% stopwords_en) 

reviews.bifiltered %>% 
  dplyr::select(word1, word2) %>% 
  dplyr::count(word1, word2, sort = TRUE)

## # A tibble: 195,447 x 3
##    word1   word2       n
##    <chr>   <chr>   <int>
##  1 graphic novel    1931
##  2 feel    like      745
##  3 comic   book      534
##  4 x       man       397
##  5 really  enjoy     376
##  6 look    forward   346
##  7 spider  man       338
##  8 really  like      332
##  9 first   volume    312
## 10 much    much      278
## # … with 195,437 more rows

reviews.bifiltered %>% 
  dplyr::select(rating, word1, word2) %>% 
  filter(rating>=4)

## # A tibble: 196,553 x 3
##    rating word1     word2    
##     <dbl> <chr>     <chr>    
##  1      4 seriously spot     
##  2      4 runaway   teenager 
##  3      4 witness   something
##  4      4 something much     
##  5      4 slightly  traumatic
##  6      4 good      thing    
##  7      4 kinda     low      
##  8      4 even      though   
##  9      4 fan       freak    
## 10      4 freak     tastic   
## # … with 196,543 more rows
…
Будет ли порекомендован комикс про Супермена пользователю, который увлекается комиксами про Бетмена? Результат: комикс про Супермена может быть порекомендован, так как оба комикса относятся к супергеройской тематике

Найдем пользователя, который больше всех хорошо оценил комиксы про Бетмена (на 5 или на 4)

goodread_comics_Batman = goodread_comics
goodread_comics_Batman$Batman = str_detect(goodread_comics_Batman$title, "Batman")
goodread_comics_Batman = goodread_comics_Batman %>% filter(goodread_comics_Batman$Batman == TRUE)
goodread_comics_Batman = goodread_comics_Batman %>% select(book_id)
goodread_reviews_Batman = goodread_reviews %>% filter(book_id %in% goodread_comics_Batman$book_id)

#возьмем пользователя, который оценил комиксы про Бетмена на 5 или на 4
goodread_reviews_Batman = goodread_reviews_Batman %>% filter(rating >= 4)
goodread_reviews_Batman %>% group_by(user_id) %>% count() %>% arrange(-n)

## # A tibble: 303 x 2
## # Groups:   user_id [303]
##    user_id                              n
##    <chr>                            <int>
##  1 ce0996178c46d462b9321725e94551c9     6
##  2 85b04c6415a88bdc0a48da3df74767b2     5
##  3 1d02d7115117999be6c86a54360c673b     3
##  4 26538f0f360954a65d7ef0dff0624a96     3
##  5 3b03b0e3350e312351cb0c5e7899a1f0     3
##  6 4a8b6f4c6a692e6eea5ac097978fee32     3
##  7 700124273584286345b341fb6308a144     3
##  8 8c1c357c3d46bf3dcf7051ba98559c7d     3
##  9 bdac9a558000de456a0be04663fa7676     3
## 10 049eb9773dbcd526aa6218fb25bcb0d2     2
## # … with 293 more rows
…
Комиксов про Супермена не выдано, потому что первый оцененный на 5 комикс в датасете не про Бэтмена.

Проверку на пользователе, которому нравятся несупергеройские комиксы, значит ему такие и должны рекомендоваться

Допустим Tokyo Guru (22447402) не про супергероев.

Найдем пользователя, который больше всех хорошо оценил комикс Tokyo Guru (на 5 или на 4)

goodread_reviews_Tokyo = goodread_reviews %>% filter(book_id == 22447402)

#возьмем пользователя, который оценил комикс Tokyo Guru на 5 или на 4
goodread_reviews_Tokyo = goodread_reviews_Tokyo %>% filter(rating >= 4)
goodread_reviews_Tokyo %>% group_by(user_id) %>% count() %>% arrange(-n)

## # A tibble: 29 x 2
## # Groups:   user_id [29]
##    user_id                              n
##    <chr>                            <int>
##  1 0d646366ef0d0f351fecf0fb4ef6c081     1
##  2 11117f92e93bb2ffa6a26f7e991e2a26     1
##  3 14834b1828124ed2ac0045d66f22f0fa     1
##  4 330d5e764ea628140a368502f7d342f1     1
##  5 3c567735f549e5329c894815515b797a     1
##  6 3e146bd5bd01924b67926305fdcf5691     1
##  7 6396585a07ff5c65559b7558b167d251     1
##  8 817ae71dc02e8ab9cd8ebc8cdbe6535a     1
##  9 82266030911da4063c8bb8ece17f0f80     1
## 10 8470526198620b8d4f8ae2f1cf1a79cb     1
## # … with 19 more rows
…
Если пользователю нравятся комиксы с полки fantasy, какие комиксы ему порекомендуют?

Найдем пользователя, который больше всех хорошо оценил комиксы fantasy (на 5 или на 4)

goodread_comics_Fantasy = goodread_comics
goodread_comics_Fantasy$Fantasy = str_detect(goodread_comics_Fantasy$popular_shelves.3.name, "fantasy")
goodread_comics_Fantasy = goodread_comics_Fantasy %>% filter(goodread_comics_Fantasy$Fantasy == TRUE)
goodread_comics_Fantasy = goodread_comics_Fantasy %>% select(book_id)
goodread_reviews_Fantasy = goodread_reviews %>% filter(book_id %in% goodread_comics_Fantasy$book_id)

#возьмем пользователя, который оценил комиксы fantasy на 5
goodread_reviews_Fantasy = goodread_reviews_Fantasy %>% filter(rating >= 5)
goodread_reviews_Fantasy %>% group_by(user_id) %>% count() %>% arrange(-n)

## # A tibble: 145 x 2
## # Groups:   user_id [145]
##    user_id                              n
##    <chr>                            <int>
##  1 08b367de645a59e9859424612e0c231a     2
##  2 37b3e60b4e4152c580fd798d405150ff     2
##  3 44bb01d7f7a5ff0295717e40471eb3c8     2
##  4 4892f9859c6e162caec3d49e955e8ddd     2
##  5 779cbe0df6e725b296292dd9a733f9cd     2
##  6 91a3e4399af83e12c93d6fd32c4eabf9     2
##  7 97e096205846f658d77485a8884d9d09     2
##  8 a3f745578147c3cdf3663faaf478d96a     2
##  9 a62f87dc3e17a93fbcf59657b74e57de     2
## 10 bd53fcba9dbb9ca1d2ca1551b44007e7     2
## # … with 135 more rows
…
